…
```
## filter(): dplyr, stats
## lag():    dplyr, stats
```

Unzipping, reading in data and viewing:

```r
unzip("activity.zip")
activity <- as_tibble(read.csv("activity.csv", stringsAsFactors = FALSE))
activity
```

```
## # A tibble: 17,568 × 3
##    steps       date interval
##    <int>      <chr>    <int>
## 1     NA 2012-10-01        0
## 2     NA 2012-10-01        5
## 3     NA 2012-10-01       10
## 4     NA 2012-10-01       15
## 5     NA 2012-10-01       20
## 6     NA 2012-10-01       25
## 7     NA 2012-10-01       30
## 8     NA 2012-10-01       35
## 9     NA 2012-10-01       40
## 10    NA 2012-10-01       45
## # ... with 17,558 more rows
```


## What is mean total number of steps taken per day?

Calculate the total number of steps taken per day:

```r
steps_per_day <- activity %>% group_by(date) %>% summarise(daily_steps = sum(steps))
steps_per_day
```

```
## # A tibble: 61 × 2
##          date daily_steps
##         <chr>       <int>
## 1  2012-10-01          NA
## 2  2012-10-02         126
## 3  2012-10-03       11352
## 4  2012-10-04       12116
## 5  2012-10-05       13294
## 6  2012-10-06       15420
## 7  2012-10-07       11015
## 8  2012-10-08          NA
## 9  2012-10-09       12811
## 10 2012-10-10        9900
## # ... with 51 more rows
```
…
Fill missing values in dataset as per strategy outlined above:

```r
fill_vals <- activity %>% filter(is.na(activity$steps) == 1) %>% inner_join(steps_by_interval, by = "interval") %>%
        select(interval_steps, date, interval)
activity_almost_filled <- activity %>% left_join(fill_vals, by = c("date", "interval"))
missing_vals <- is.na(activity_almost_filled$steps)
activity_almost_filled[missing_vals, "steps"] <- activity_almost_filled[missing_vals, "interval_steps"]
activity_filled <- activity_almost_filled %>% select(steps, date, interval)
activity_filled
```

```
## # A tibble: 17,568 × 3
##        steps       date interval
##        <dbl>      <chr>    <int>
## 1  1.7169811 2012-10-01        0
## 2  0.3396226 2012-10-01        5
## 3  0.1320755 2012-10-01       10
## 4  0.1509434 2012-10-01       15
## 5  0.0754717 2012-10-01       20
## 6  2.0943396 2012-10-01       25
## 7  0.5283019 2012-10-01       30
## 8  0.8679245 2012-10-01       35
## 9  0.0000000 2012-10-01       40
## 10 1.4716981 2012-10-01       45
## # ... with 17,558 more rows
```
…
```r
weekdays <- tibble(day = c("Monday", "Tuesday", "Wednesday", "Thursday", "Friday", "Saturday", "Sunday"),
                   category = c(rep("weekday", 5), rep("weekend", 2)))
data_w_day <- activity_filled %>% mutate(day = as.character(wday(activity_filled$date, label = TRUE, abbr = FALSE)))
data_w_day_status <- left_join(data_w_day, weekdays, by = "day") %>% mutate(week_portion = as.factor(category)) %>%
                select(steps, date, interval, week_portion)
data_w_day_status
```

```
## # A tibble: 17,568 × 4
##        steps       date interval week_portion
##        <dbl>      <chr>    <int>       <fctr>
## 1  1.7169811 2012-10-01        0      weekday
## 2  0.3396226 2012-10-01        5      weekday
## 3  0.1320755 2012-10-01       10      weekday
## 4  0.1509434 2012-10-01       15      weekday
## 5  0.0754717 2012-10-01       20      weekday
## 6  2.0943396 2012-10-01       25      weekday
## 7  0.5283019 2012-10-01       30      weekday
## 8  0.8679245 2012-10-01       35      weekday
## 9  0.0000000 2012-10-01       40      weekday
## 10 1.4716981 2012-10-01       45      weekday
## # ... with 17,558 more rows
```
…
